{
  "connection": "default",
  "collectionName": "reservation",
  "info": {
    "name": "reservation",
    "description": ""
  },
  "options": {
    "timestamps": true
  },
  "attributes": {
    "arrivalDate": {
      "default": "",
      "type": "date"
    },
    "departureDate": {
      "default": "",
      "type": "date"
    },
    "user": {
      "model": "user",
      "via": "reservation",
      "plugin": "users-permissions"
    },
    "hotel": {
      "model": "hotel",
      "via": "reservations"
    },
    "price": {
      "default": "",
      "type": "decimal"
    }
  }
}