{
  "routes": [
    {
      "method": "GET",
      "path": "/reservations",
      "handler": "Reservation.find",
      "config": {
        "policies": []
      }
    },
    {
      "method": "GET",
      "path": "/reservations/count",
      "handler": "Reservation.count",
      "config": {
        "policies": []
      }
    },
    {
      "method": "GET",
      "path": "/reservations/:_id",
      "handler": "Reservation.findOne",
      "config": {
        "policies": []
      }
    },
    {
      "method": "POST",
      "path": "/reservations",
      "handler": "Reservation.create",
      "config": {
        "policies": []
      }
    },
    {
      "method": "PUT",
      "path": "/reservations/:_id",
      "handler": "Reservation.update",
      "config": {
        "policies": []
      }
    },
    {
      "method": "DELETE",
      "path": "/reservations/:_id",
      "handler": "Reservation.destroy",
      "config": {
        "policies": []
      }
    }
  ]
}
